…
## The data

We're going to explore data from the National Electronic Injury Surveillance System (NEISS), collected by the Consumer Product Safety Commission. This is a long-term study that records all accidents seen in a representative sample of hospitals in the United States. It's an interesting dataset to explore because every one is already familiar with the domain, and each observation is accompanied by a short narrative that explains how the accident occurred. You can find out more about this dataset at <https://github.com/hadley/neiss>.

In this chapter, I'm going to focus on just the data from 2017. This keeps the data small enough (~10 meg) that it's easy to store in git (along with the rest of the book), which means we don't need to think about sophisticated strategies for importing the data quickly (we'll come back to those later in the book). You can see the code I used to create the extract for this chapter at <https://github.com/hadley/mastering-shiny/blob/master/neiss/data.R>.

The main dataset we'll use is `injuries`, which contains around 250,000 observations:


```r
injuries <- vroom::vroom("neiss/injuries.tsv.gz")
injuries
#> # A tibble: 255,064 x 10
#>   trmt_date    age sex   race  body_part diag  location prod_code weight
#>   <date>     <dbl> <chr> <chr> <chr>     <chr> <chr>        <dbl>  <dbl>
#> 1 2017-01-01    71 male  white Upper Tr~ Cont~ Other P~      1807   77.7
#> 2 2017-01-01    16 male  white Lower Arm Burn~ Home           676   77.7
#> 3 2017-01-01    58 male  white Upper Tr~ Cont~ Home           649   77.7
#> 4 2017-01-01    21 male  white Lower Tr~ Stra~ Home          4076   77.7
#> 5 2017-01-01    54 male  white Head      Inte~ Other P~      1807   77.7
#> 6 2017-01-01    21 male  white Hand      Frac~ Home          1884   77.7
#> # ... with 255,058 more rows, and 1 more variable: narrative <chr>
```
…
* `prod_code` is the primary product associated with the injury.

* `weight` is statistical weight giving the estimated number of people who
  would suffer this injury if this dataset was scaled to the entire population 
  of the US.

* `narrative` is a brief story about how the accident occurred.

We'll pair it with two other data frames for additional context: `products` lets us look up the product name from the product code, and `population` tells us the total US population in 2017 for each combination of age and sex.


```r
products <- vroom::vroom("neiss/products.tsv")
products
#> # A tibble: 38 x 2
#>   prod_code title                            
#>       <dbl> <chr>                            
#> 1       464 knives, not elsewhere classified 
#> 2       474 tableware and accessories        
#> 3       604 desks, chests, bureaus or buffets
#> 4       611 bathtubs or showers              
#> 5       649 toilets                          
#> 6       676 rugs or carpets, not specified   
#> # ... with 32 more rows

population <- vroom::vroom("neiss/population.tsv")
population
#> # A tibble: 170 x 3
#>     age sex    population
#>   <dbl> <chr>       <dbl>
#> 1     0 female    1924145
#> 2     0 male      2015150
#> 3     1 female    1943534
#> 4     1 male      2031718
#> 5     2 female    1965150
#> 6     2 male      2056625
#> # ... with 164 more rows
```
…
Before we create the app, let's explore the data a little. We'll start by looking at the product associated with the most injuries: 1842, "stairs or steps". First we'll pull out the injuries associated with this product:


```r
selected <- injuries %>% filter(prod_code == 1842)
nrow(selected)
#> [1] 30647
```

Next we'll perform some basic summaries looking at the diagnosis, body part, and location where the injury occurred. Note that I weight by the `weight` variable so that the counts can be interpreted as estimated total injuries across the whole US.


```r
selected %>% count(diag, wt = weight, sort = TRUE)
#> # A tibble: 23 x 2
#>   diag                        n
#>   <chr>                   <dbl>
#> 1 Strain, Sprain        267892.
#> 2 Fracture              243082.
#> 3 Other Or Not Stated   227515.
#> 4 Contusion Or Abrasion 195172.
#> 5 Inter Organ Injury    111340.
#> 6 Laceration             89190.
#> # ... with 17 more rows

selected %>% count(body_part, wt = weight, sort = TRUE)
#> # A tibble: 25 x 2
#>   body_part         n
#>   <chr>         <dbl>
#> 1 Ankle       183470.
#> 2 Head        174725.
#> 3 Lower Trunk 150459.
#> 4 Knee        112162.
#> 5 Upper Trunk  98197.
#> 6 Face         73815.
#> # ... with 19 more rows

selected %>% count(location, wt = weight, sort = TRUE)
#> # A tibble: 8 x 2
#>   location                         n
#>   <chr>                        <dbl>
#> 1 Home                       647127.
#> 2 Unknown                    458802.
#> 3 Other Public Property       57625.
#> 4 School                      25146.
#> 5 Sports Or Recreation Place  11833.
#> 6 Street Or Highway            2148.
#> # ... with 2 more rows
```

As you might expect, steps are most often associated with sprains, strains and fractures, of the ankle, occurring at home.

We can also explore the pattern across age and sex. We have enough data here that a table is not that useful, and so I make a plot, Figure \@ref(fig:stairs-raw), that makes the patterns more obvious.


```r
summary <- selected %>% 
  count(age, sex, wt = weight)
summary
#> # A tibble: 204 x 3
#>     age sex         n
#>   <dbl> <chr>   <dbl>
#> 1     0 female  3714.
#> 2     0 male    3981.
#> 3     1 female 12155.
#> 4     1 male   12898.
#> 5     2 female  6949.
#> 6     2 male    9730.
#> # ... with 198 more rows
…
We see a big spike when children are learning to walk, a flattening off over middle age, and then a gradual decline after age 50. Interestingly, the number of injuries is much higher for women. (Maybe this is due to high-heeled shoes?)

One problem with interpreting this pattern is that we know that there are fewer older people than younger people, so the population available to be injured is smaller. We can control for this by comparing the number of people injured with the total population and calculating an injury rate. Here I use a rate per 10,000.


```r
summary <- selected %>% 
  count(age, sex, wt = weight) %>% 
  left_join(population, by = c("age", "sex")) %>% 
  mutate(rate = n / population * 1e4)

summary
#> # A tibble: 204 x 5
#>     age sex         n population  rate
#>   <dbl> <chr>   <dbl>      <dbl> <dbl>
#> 1     0 female  3714.    1924145  19.3
#> 2     0 male    3981.    2015150  19.8
#> 3     1 female 12155.    1943534  62.5
#> 4     1 male   12898.    2031718  63.5
#> 5     2 female  6949.    1965150  35.4
#> 6     2 male    9730.    2056625  47.3
#> # ... with 198 more rows
```
…
